3
5
10
24
28
46
50
76
81
92
98
102
105
116
121
124
130
137
141
166
172
178
180
217
220
229
235
237
244
264
270
273
280
307
310
316
351
353
357
359
380
394
398
409
412
443
445
448
457
468
472
475
479
486
493
496
510
528
530
549
551
568
572
575
581
590
597
599
618
631
648
650
658
676
679
682
687
696
701
706
718
731
737
752
771
773
817
836
889
897
899
906
922
944
963
971
988
1016
1018
1030
1033
1035
1037
1054
1075
1080
1096
1120
1127
1133
1143
1154
1162
1185
1189
1203
1213
1219
1241
1253
1259
1285
1308
1343
1377
1382
1387
1395
1398
1411
1415
1429
1455
1502
1505
1534
1548
1635
1639
1657
1663
1669
1702
1710
1721
1763
1766
1778
1784
1790
1797
1838
1844
1894
1900
1903
1947
1989
1992
1995
1997
2002
2009
2018
2021
2033
2038
2042
2063
2072
2079
2092
2096
2103
2107
2131
2145
2152
2159
2161
2164
2167
2170
2178
2188
2224
2251
2266
2274
2286
2294
2305
2309
2316
2320
2325
2346
2366
2383
2407
2409
2411
2424
2429
2433
2435
2440
2442
2459
2464
2472
2488
2490
2505
2511
2520
2527
2536
2543
2556
2561
2586
2588
2649
2651
2675
2683
2689
2695
2708
2721
2728
2730
2747
2750
2754
2761
2766
2772
2792
2809
2817
2821
2835
2853
2858
2860
2882
2890
2903
2914
2932
2945
2948
2955
2968
3007
3010
3015
3023
3025
3030
3078
3090
3095
3108
3114
3121
3129
3131
3138
3160
3193
3238
3241
3261
3276
3280
3291
3300
3313
3322
3337
3342
3360
3372
3374
3395
3401
3414
3427
3468
3475
3479
3492
3498
3502
3522
3549
3600
3629
3652
3659
3670
3672
3674
3681
3685
3695
3717
3726
3736
3741
3749
3751
3753
3765
3768
3784
3799
3835
3875
3910
3916
3929
3941
3958
3965
3977
3982
3994
4021
4024
4028
4056
4062
4065
4071
4086
4098
4120
4123
4144
4162
4167
4169
4175
4184
4203
4218
4260
4263
4271
4274
4277
4294
4308
4316
4338
4346
4350
4352
4355
4378
4384
4402
4409
4476
4485
4488
4500
4539
4542
4544
4548
4568
4594
4611
4621
4635
4642
4655
4659
4663
4679
4709
4733
4760
4787
4801
4808
4825
4833
4841
4849
4852
4857
4873
4882
4886
4908
4917
4919
4938
4942
4964
4970
4980
4990
4999
5001
5003
5006
5015
5031
5035
5046
5048
5051
5076
5080
5082
5089
5100
5111
5126
5146
5153
5167
5185
5205
5207
5210
5219
5226
5233
5249
5257
5262
5266
5289
5296
5300
5302
5321
5324
5329
5333
5342
5356
5363
5365
5368
5371
5374
5397
5400
5404
5407
5414
5418
5422
5425
5428
5434
5441
5446
5451
5462
5471
5474
5478
5483
5489
5495
5498
5504
5506
5508
5517
5522
5534
5546
5550
5609
5623
5654
5660
5678
5685
5735
5752
5761
5770
5773
5785
5824
5827
5829
5833
5853
5879
5906
5920
5927
5953
5982
5997
6062
6115
6121
6123
6126
6139
6152
6163
6187
6239
6255
6260
6269
6287
6297
6316
6323
6327
6332
6353
6360
6368
6385
6401
6418
6441
6450
6466
6495
6498
6512
6517
6520
6528
6530
6551
6570
6617
6634
6639
6644
6648
6654
6666
6674
6684
6688
6692
6695
6697
6700
6718
6728
6731
6739
6748
6767
6790
6808
6826
6829
6837
6841
6869
6874
6880
6902
6913
6919
6937
6945
6951
6956
6970
6999
7006
7030
7053
7060
7075
7081
7092
7101
7107
7123
7128
7134
7143
7152
7162
7180
7188
7192
7201
7212
7223
7229
7270
7281
7293
7298
7300
7302
7305
7316
7318
7338
7341
7349
7358
7362
7371
7387
7396
7410
7412
7417
7419
7427
7440
7467
7488
7505
7507
7519
7573
7579
7593
7598
7600
7605
7613
7619
7650
7667
7676
7679
7691
7756
7767
7773
7777
7780
7782
7799
7803
7805
7812
7816
7821
7841
7854
7856
7888
7890
7892
7894
7896
7898
7902
7904
7930
7940
7972
7982
7988
7996
8003
8043
8085
8088
8090
8098
8111
8125
8131
8148
8157
8160
8170
8211
8243
8253
8255
8265
8277
8286
8302
8308
8310
8312
8322
8338
8341
8346
8371
8402
8437
8456
8506
8519
8522
8563
8595
8648
8654
8672
8679
8684
8704
8735
8752
8761
8764
8776
8796
8815
8818
8820
8824
8844
8869
8887
8897
8911
8918
8931
8959
8992
9003
9009
9013
9025
9030
9033
9039
9082
9086
9108
9114
9124
9126
9132
9136
9139
9158
9164
9171
9175
9180
9184
9200
9212
9214
9218
9271
9294
9299
9313
9318
9338
9344
9361
9370
9373
9386
9454
9474
9481
9486
9510
9531
9557
9572
9622
9689
9695
9745
9749
9755
9773
9775
9799
9825
9842
9852
9873
9925
9968
9975
9992
10004
10016
10035
10136
10145
10154
10175
10185
10189
10196
10203
10216
10220
10237
10245
10253
10266
10271
10275
10281
10287
10292
10316
10318
10322
10326
10334
10336
10338
10348
10364
10368
10378
10397
10436
10439
10442
10444
10452
10454
10468
10476
10508
10514
10518
10534
10544
10566
10609
10614
10623
10632
10638
10641
10662
10668
10691
10694
10698
10701
10709
10713
10720
10722
10726
10732
10739
10749
10754
10756
10768
10774
10779
10791
10825
10837
10851
10853
10882
10884
10909
10911
10914
10933
10953
10972
10979
11012
11016
11026
11042
11049
11053
11056
11070
11095
11123
11158
11189
11193
11200
11205
11214
11221
11234
11253
11258
11303
11309
11321
11327
11332
11338
11345
11353
11372
11387
11406
11412
11439
11443
11446
11462
11483
11492
11497
11531
11548
11552
11590
11601
11607
11617
11622
11625
11631
11690
11716
11730
11736
11759
11762
11768
11779
11784
11804
11816
11818
11822
11845
11848
11890
11893
11897
11899
11902
11906
11934
11945
11951
11955
11959
11969
11974
11977
11983
11988
12025
12037
12041
12050
12066
12080
12083
12089
12096
12115
12121
12128
12132
12137
12157
12169
12171
12175
12238
12262
12268
12320
12343
12348
12350
12355
12358
12379
12400
12403
12417
12426
12429
12433
12441
12455
12461
12477
12486
12513
12539
12555
12569
12576
12589
12593
12598
12601
12613
12620
12644
12655
12663
12665
12673
12690
12703
12718
12731
12738
12764
12780
12792
12809
12819
12840
12844
12846
12852
12864
12866
12873
12879
12894
12902
12904
12914
12916
12921
12932
12937
12939
12942
12944
12947
12950
12954
12967
12974
12997
13005
13008
13011
13022
13031
13057
13065
13091
13112
13125
13138
13166
13169
13172
13226
13232
13238
13266
13332
13334
13339
13346
13395
13398
13415
13418
13423
13426
13463
13466
13469
13475
13484
13504
13520
13530
13539
13545
13551
13553
13561
13571
13575
13578
13604
13623
13630
13634
13636
13639
13658
13712
13721
13739
13791
13808
13828
13842
13867
13877
13887
13889
13897
13906
13909
13932
13942
13944
13952
14029
14034
14043
14058
14074
14083
14085
14101
14108
14111
14114
14116
14133
14138
14140
14150
14154
14161
14163
14171
14183
14189
14198
14206
14221
14225
14228
14237
14246
14255
14258
14266
14271
14280
14300
14332
14344
14368
14375
14400
14412
14415
14424
14427
14439
14458
14472
14478
14485
14521
14524
14529
14546
14571
14574
14578
14585
14591
14601
14680
14687
14692
14698
14706
14733
14744
14760
14789
14826
14835
14840
14855
14857
14859
14865
14878
14887
14901
14903
14907
14935
14954
14957
14969
14997
